-------------------------------------------------------------------------------
Test set: ru.penzgtu1.MainTest
-------------------------------------------------------------------------------
Tests run: 2, Failures: 1, Errors: 0, Skipped: 0, Time elapsed: 0.08 s <<< FAILURE! - in ru.penzgtu1.MainTest
mas  Time elapsed: 0.06 s  <<< FAILURE!
org.opentest4j.AssertionFailedError: expected: <24> but was: <25>
	at ru.penzgtu1.MainTest.mas(MainTest.java:9)

